{"type":"map","backgroundSprite":"Background.png","wallSprite":"Wall.png",
    "wall":[
        {"x":1,"y":1},
        {"x":14,"y":36},
        {"x":17,"y":36},
        {"x":17,"y":37},
        {"x":20,"y":36},
        {"x":20,"y":37},
        {"x":20,"y":38},
        {"x":25,"y":38},
        {"x":30,"y":36},
        {"x":42,"y":30},
        {"x":43,"y":30},
        {"x":44,"y":30},
        {"x":45,"y":30},
        {"x":46,"y":30},
        {"x":47,"y":30},
        {"x":48,"y":30},
        {"x":49,"y":30},
        {"x":50,"y":30},
        {"x":51,"y":30},
        {"x":52,"y":30},
        {"x":53,"y":30},
        {"x":54,"y":30},
        {"x":55,"y":30},
        {"x":56,"y":30},
        {"x":57,"y":30},
        {"x":58,"y":30}]}